Session 4: Homework 2
…
2.3 Email usage

Can we estimate the population parameter on time spent on email weekly?

Create a new variable called email that combines emailhr and emailmin to reports the number of minutes the respondents spend on email weekly.

gss_email<- gss %>%
  na_if("NA") %>%
  mutate(email=
           as.numeric(emailhr)*60+
           as.numeric(emailmin)) 

gss_email

## # A tibble: 2,867 x 8
##    emailmin emailhr snapchat instagrm twitter sex    degree         email
##    <chr>    <chr>   <chr>    <chr>    <chr>   <chr>  <chr>          <dbl>
##  1 0        12      <NA>     <NA>     <NA>    Male   Bachelor         720
##  2 30       0       No       No       No      Male   High school       30
##  3 <NA>     <NA>    No       No       No      Male   Bachelor          NA
##  4 10       0       <NA>     <NA>     <NA>    Female High school       10
##  5 <NA>     <NA>    Yes      Yes      No      Female Graduate          NA
##  6 0        2       No       Yes      No      Female Junior college   120
##  7 0        40      <NA>     <NA>     <NA>    Male   High school     2400
##  8 <NA>     <NA>    Yes      Yes      No      Female High school       NA
##  9 0        0       <NA>     <NA>     <NA>    Male   High school        0
## 10 <NA>     <NA>    No       No       No      Male   Junior college    NA
## # ... with 2,857 more rows
…
gss_email

## # A tibble: 2,867 x 8
##    emailmin emailhr snapchat instagrm twitter sex    degree         email
##    <chr>    <chr>   <chr>    <chr>    <chr>   <chr>  <chr>          <dbl>
##  1 0        12      <NA>     <NA>     <NA>    Male   Bachelor         720
##  2 30       0       No       No       No      Male   High school       30
##  3 <NA>     <NA>    No       No       No      Male   Bachelor          NA
##  4 10       0       <NA>     <NA>     <NA>    Female High school       10
##  5 <NA>     <NA>    Yes      Yes      No      Female Graduate          NA
##  6 0        2       No       Yes      No      Female Junior college   120
##  7 0        40      <NA>     <NA>     <NA>    Male   High school     2400
##  8 <NA>     <NA>    Yes      Yes      No      Female High school       NA
##  9 0        0       <NA>     <NA>     <NA>    Male   High school        0
## 10 <NA>     <NA>    No       No       No      Male   Junior college    NA
## # ... with 2,857 more rows
…
## # A tibble: 195 x 9
## # Groups:   Year [4]
##     Year  Week Average_net_app~  Stdv Critical_value    SE Margin_error      Low
##    <dbl> <dbl>            <dbl> <dbl>          <dbl> <dbl>        <dbl>    <dbl>
##  1  2017     4             3.30  5.27           1.78 1.46          2.61   0.694 
##  2  2017     5             1.45  3.37           1.74 0.794         1.38   0.0716
##  3  2017     6            -1.47  4.54           1.71 0.927         1.59  -3.06  
##  4  2017     7            -3.08  5.14           1.71 1.03          1.76  -4.83  
##  5  2017     8            -4.21  4.48           1.71 0.915         1.57  -5.78  
##  6  2017     9            -1.43  4.25           1.72 0.906         1.56  -2.99  
##  7  2017    10            -2.34  4.98           1.71 0.977         1.67  -4.01  
##  8  2017    11            -6.05  4.75           1.71 0.950         1.62  -7.68  
##  9  2017    12            -4.81  7.71           1.71 1.54          2.64  -7.45  
## 10  2017    13           -10.1   5.01           1.71 1.00          1.71 -11.8   
## # ... with 185 more rows, and 1 more variable: High <dbl>
…
